^F:\PROJECT\UNREAL\LAB\LAB_19\VS_CPP_TAKE_7\PLAYER.CPP
/c /ZI /JMC /nologo /W3 /WX- /diagnostics:column /sdl /Od /D _DEBUG /D _CONSOLE /D _UNICODE /D UNICODE /Gm- /EHsc /RTC1 /MDd /GS /fp:precise /Zc:wchar_t /Zc:forScope /Zc:inline /permissive- /Fo"X64\DEBUG\\" /Fd"X64\DEBUG\VC143.PDB" /external:W3 /Gd /TP /FC F:\PROJECT\UNREAL\LAB\LAB_19\VS_CPP_TAKE_7\PLAYER.CPP
^F:\PROJECT\UNREAL\LAB\LAB_19\VS_CPP_TAKE_7\VS_CPP_TAKE_7_X.CPP
/c /ZI /JMC /nologo /W3 /WX- /diagnostics:column /sdl /Od /D _DEBUG /D _CONSOLE /D _UNICODE /D UNICODE /Gm- /EHsc /RTC1 /MDd /GS /fp:precise /Zc:wchar_t /Zc:forScope /Zc:inline /permissive- /Fo"X64\DEBUG\\" /Fd"X64\DEBUG\VC143.PDB" /external:W3 /Gd /TP /FC F:\PROJECT\UNREAL\LAB\LAB_19\VS_CPP_TAKE_7\VS_CPP_TAKE_7_X.CPP
