^F:\PROJECT\UNREAL\LAB\LAB_19\VS_CPP_TAKE_7\PLAYER.CPP|F:\PROJECT\UNREAL\LAB\LAB_19\VS_CPP_TAKE_7\VS_CPP_TAKE_7_X.CPP
F:\PROJECT\UNREAL\LAB\LAB_19\VS_CPP_TAKE_7\X64\DEBUG\VC143.PDB
F:\PROJECT\UNREAL\LAB\LAB_19\VS_CPP_TAKE_7\X64\DEBUG\VC143.IDB
F:\PROJECT\UNREAL\LAB\LAB_19\VS_CPP_TAKE_7\X64\DEBUG\VS_CPP_TAKE_7_X.OBJ
F:\PROJECT\UNREAL\LAB\LAB_19\VS_CPP_TAKE_7\X64\DEBUG\PLAYER.OBJ
^F:\PROJECT\UNREAL\LAB\LAB_19\VS_CPP_TAKE_7\PLAYER.CPP
F:\PROJECT\UNREAL\LAB\LAB_19\VS_CPP_TAKE_7\X64\DEBUG\VC143.PDB
^F:\PROJECT\UNREAL\LAB\LAB_19\VS_CPP_TAKE_7\VS_CPP_TAKE_7_X.CPP
F:\PROJECT\UNREAL\LAB\LAB_19\VS_CPP_TAKE_7\X64\DEBUG\VC143.PDB
